{
	"processedReleases": {
		"v2.13.1": true,
		"v2.13.2": true,
		"v2.13.3": true,
		"v2.13.4": true,
		"v2.13.5": true,
		"v2.13.6": true,
		"v2.13.8": true,
		"v2.13.9": true,
		"v2.13.10": true,
		"v2.13.11": true,
		"v2.13.12": true,
		"v2.13.13": true,
		"v2.14.6": true,
		"v2.14.7": true,
		"v2.14.8": true,
		"v2.14.9": true,
		"v2.13.14": true,
		"v2.13.15": true,
		"v2.14.10": true,
		"v2.14.11": true,
		"v2.14.12": true,
		"v2.14.13": true,
		"v2.14.14": true,
		"v2.14.15": true,
		"android-v2.14.7": true,
		"android-v2.14.6": true,
		"android-v2.14.5": true,
		"android-v2.14.4": true,
		"android-v2.14.3": true,
		"android-v2.14.2": true,
		"android-v2.14.1": true,
		"android-v2.13.10": true,
		"android-v2.13.9": true,
		"android-v2.13.8": true,
		"ios-v12.14.5": true,
		"ios-v12.14.4": true,
		"ios-v12.14.3": true,
		"ios-v12.14.2": true,
		"ios-v12.14.1": true,
		"ios-v12.13.10": true,
		"ios-v12.13.9": true,
		"ios-v12.13.8": true,
		"v2.14.16": true,
		"android-v2.14.8": true,
		"android-v2.14.9": true,
		"v2.14.17": true,
		"ios-v12.14.6": true,
		"v2.14.19": true,
		"v2.14.20": true,
		"v3.0.2": true,
		"android-v3.0.1": true,
		"android-v3.0.2": true,
		"v3.0.3": true,
		"ios-v13.0.1": true,
		"android-v3.0.3": true,
		"v3.0.6": true,
		"ios-v12.14.7": true,
		"ios-v12.14.8": true,
		"v3.0.8": true,
		"v2.14.22": true,
		"v3.0.9": true,
		"android-v3.0.4": true,
		"ios-v13.0.2": true,
		"v3.0.10": true,
		"android-v3.0.5": true,
		"ios-v13.0.3": true,
		"v3.0.11": true,
		"android-v3.0.6": true,
		"ios-v13.0.4": true,
		"android-v3.0.7": true,
		"ios-v13.0.5": true,
		"v3.0.12": true,
		"v3.0.13": true,
		"android-v3.0.8": true,
		"ios-v13.0.6": true,
		"v3.0.14": true,
		"android-v3.0.9": true,
		"ios-v13.0.7": true,
		"v2.14.23": true,
		"android-v3.1.1": true,
		"ios-v13.1.1": true,
		"v3.1.1": true,
		"android-v3.1.2": true,
		"ios-v13.1.2": true,
		"ios-v13.1.3": true,
		"v3.1.2": true,
		"v3.1.3": true,
		"v3.0.15": true,
		"v3.1.4": true,
		"v3.1.6": true,
		"android-v3.1.3": true,
		"v3.1.8": true,
		"v3.1.15": true,
		"v3.1.16": true,
		"android-v3.1.4": true,
		"v3.1.17": true,
		"v3.1.18": true,
		"android-v3.1.5": true,
		"ios-v13.1.5": true,
		"v3.1.20": true,
		"v3.1.22": true,
		"v3.1.23": true,
		"v3.1.24": true,
		"v3.2.1": true,
		"android-v3.1.6": true,
		"android-v3.1.7": true,
		"android-v3.1.8": true,
		"android-v3.2.1": true,
		"ios-v13.1.6": true,
		"ios-v13.1.7": true,
		"v3.2.3": true,
		"android-v3.2.2": true,
		"android-v3.2.3": true,
		"ios-v13.2.1": true,
		"v3.2.4": true,
		"ios-v13.2.2": true,
		"v3.2.5": true,
		"v3.2.6": true,
		"v3.2.7": true,
		"android-v3.2.4": true,
		"v3.2.8": true,
		"android-v3.2.5": true,
		"ios-v13.2.4": true,
		"v3.2.9": true,
		"v3.2.10": true,
		"android-v3.2.6": true,
		"v3.2.11": true,
		"android-v3.2.7": true,
		"ios-v13.2.5": true,
		"v3.2.12": true,
		"v3.3.1": true,
		"v3.3.2": true,
		"android-v3.3.1": true,
		"ios-v13.3.1": true,
		"v3.2.13": true,
		"android-v3.3.2": true
	}
}